…
### Exercise 7

CA has the most Denny’s locations. TX has the most La Quinta’s
locations.

``` r
dennys %>%
  count(state) %>%
  arrange(desc(n))
```

    ## # A tibble: 51 x 2
    ##    state     n
    ##    <chr> <int>
    ##  1 CA      403
    ##  2 TX      200
    ##  3 FL      140
    ##  4 AZ       83
    ##  5 IL       56
    ##  6 NY       56
    ##  7 WA       49
    ##  8 OH       44
    ##  9 MO       42
    ## 10 PA       40
    ## # ... with 41 more rows

``` r
laquinta %>%
  count(state) %>%
  arrange(desc(n))
```

    ## # A tibble: 48 x 2
    ##    state     n
    ##    <chr> <int>
    ##  1 TX      237
    ##  2 FL       74
    ##  3 CA       56
    ##  4 GA       41
    ##  5 TN       30
    ##  6 OK       29
    ##  7 LA       28
    ##  8 CO       27
    ##  9 NM       19
    ## 10 NY       19
    ## # ... with 38 more rows

Per square thousand miles: DC has the most Denny’s locations per 1000 sq
miles. RI has the most La Quinta’s locations per 1000 sq miles.

``` r
dennys %>%
  count(state) %>%
  inner_join(states, by = c("state" = "abbreviation")) %>%
  mutate(concentration = n/area*1000) %>%
  arrange(desc(concentration))
```

    ## # A tibble: 51 x 5
    ##    state     n name                     area concentration
    ##    <chr> <int> <chr>                   <dbl>         <dbl>
    ##  1 DC        2 District of Columbia     68.3        29.3  
    ##  2 RI        5 Rhode Island           1545.          3.24 
    ##  3 CA      403 California           163695.          2.46 
    ##  4 CT       12 Connecticut            5543.          2.16 
    ##  5 FL      140 Florida               65758.          2.13 
    ##  6 MD       26 Maryland              12406.          2.10 
    ##  7 NJ       10 New Jersey             8723.          1.15 
    ##  8 NY       56 New York              54555.          1.03 
    ##  9 IN       37 Indiana               36420.          1.02 
    ## 10 OH       44 Ohio                  44826.          0.982
    ## # ... with 41 more rows

``` r
laquinta %>%
  count(state) %>%
  inner_join(states, by = c("state" = "abbreviation")) %>%
  mutate(conc = n/area*1000) %>%
  arrange(desc(conc))
```

    ## # A tibble: 48 x 5
    ##    state     n name             area  conc
    ##    <chr> <int> <chr>           <dbl> <dbl>
    ##  1 RI        2 Rhode Island    1545. 1.29 
    ##  2 FL       74 Florida        65758. 1.13 
    ##  3 CT        6 Connecticut     5543. 1.08 
    ##  4 MD       13 Maryland       12406. 1.05 
    ##  5 TX      237 Texas         268596. 0.882
    ##  6 TN       30 Tennessee      42144. 0.712
    ##  7 GA       41 Georgia        59425. 0.690
    ##  8 NJ        5 New Jersey      8723. 0.573
    ##  9 MA        6 Massachusetts  10554. 0.568
    ## 10 LA       28 Louisiana      52378. 0.535
    ## # ... with 38 more rows
…
